[gd_scene load_steps=8 format=2]

[ext_resource path="res://scripts/systems/control_ui.gd" type="Script" id=1]
[ext_resource path="res://assets/fonts/Manrope-ExtraBold.ttf" type="DynamicFontData" id=2]
[ext_resource path="res://assets/fonts/Manrope-SemiBold.ttf" type="DynamicFontData" id=3]
[ext_resource path="res://assets/fonts/Manrope-Regular.ttf" type="DynamicFontData" id=4]

[sub_resource type="DynamicFont" id=1]
size = 72
font_data = ExtResource( 2 )

[sub_resource type="DynamicFont" id=2]
size = 64
font_data = ExtResource( 3 )

[sub_resource type="DynamicFont" id=3]
size = 48
font_data = ExtResource( 4 )

[node name="ControlUI" type="Control"]
anchor_right = 1.0
anchor_bottom = 1.0
margin_right = -224.0
margin_bottom = -200.0
script = ExtResource( 1 )
__meta__ = {
"_edit_use_anchors_": false
}

[node name="DebugBackground" type="ColorRect" parent="."]
margin_right = 800.0
margin_bottom = 400.0
color = Color( 0, 0, 0, 1 )
__meta__ = {
"_edit_lock_": true,
"_edit_use_anchors_": false
}

[node name="LabelSongName" type="Label" parent="."]
margin_top = 64.0
margin_right = 800.0
margin_bottom = 256.0
custom_fonts/font = SubResource( 1 )
text = "[Song Name Here]"
align = 1
valign = 1
__meta__ = {
"_edit_use_anchors_": false
}

[node name="Play" type="Label" parent="."]
margin_top = 192.0
margin_right = 800.0
margin_bottom = 400.0
custom_fonts/font = SubResource( 2 )
text = "Play"
align = 1
valign = 1
__meta__ = {
"_edit_use_anchors_": false
}

[node name="ScoreMaxCombo" type="Label" parent="."]
visible = false
margin_right = 800.0
margin_bottom = 208.0
custom_fonts/font = SubResource( 3 )
text = "Score: 10000
Max Combo: 100"
align = 1
valign = 2

[node name="ScoreMaxComboHistoric" type="Label" parent="."]
visible = false
margin_top = 208.0
margin_right = 800.0
margin_bottom = 400.0
custom_fonts/font = SubResource( 3 )
text = "Highest Score: 10000
Highest Max Combo: 100"
align = 1
